<svg width="18" height="17" viewBox="0 0 18 17" fill="none" xmlns="http://www.w3.org/2000/svg">
<path id="Vector" d="M15.7663 2.30571C15.3753 1.89176 14.9111 1.56339 14.4002 1.33935C13.8893 1.11531 13.3417 1 12.7887 1C12.2357 1 11.6881 1.11531 11.1772 1.33935C10.6663 1.56339 10.2021 1.89176 9.81116 2.30571L8.9998 3.16439L8.18843 2.30571C7.39874 1.46995 6.32768 1.00043 5.21089 1.00043C4.09409 1.00043 3.02303 1.46995 2.23334 2.30571C1.44365 3.14146 1 4.27498 1 5.45692C1 6.63885 1.44365 7.77237 2.23334 8.60813L3.0447 9.46681L8.9998 15.7692L14.9549 9.46681L15.7663 8.60813C16.1574 8.19437 16.4677 7.70312 16.6793 7.16242C16.891 6.62173 17 6.04219 17 5.45692C17 4.87164 16.891 4.29211 16.6793 3.75141C16.4677 3.21072 16.1574 2.71946 15.7663 2.30571Z" fill="white" stroke="#333333" stroke-linecap="round" stroke-linejoin="round"/>
</svg>
