<svg width="18" height="17" viewBox="0 0 18 17" fill="none" xmlns="http://www.w3.org/2000/svg">
<path d="M6.93921 16.2726C7.40776 16.2726 7.7876 15.8956 7.7876 15.4305C7.7876 14.9654 7.40776 14.5884 6.93921 14.5884C6.47066 14.5884 6.09082 14.9654 6.09082 15.4305C6.09082 15.8956 6.47066 16.2726 6.93921 16.2726Z" stroke="white" stroke-linecap="round" stroke-linejoin="round"/>
<path d="M14.574 16.2726C15.0425 16.2726 15.4224 15.8956 15.4224 15.4305C15.4224 14.9654 15.0425 14.5884 14.574 14.5884C14.1054 14.5884 13.7256 14.9654 13.7256 15.4305C13.7256 15.8956 14.1054 16.2726 14.574 16.2726Z" stroke="white" stroke-linecap="round" stroke-linejoin="round"/>
<path d="M1 1H3.9308L5.89444 10.7382C5.96144 11.073 6.14495 11.3738 6.41286 11.5879C6.68076 11.8019 7.01598 11.9156 7.35984 11.9091H14.4817C14.8255 11.9156 15.1608 11.8019 15.4287 11.5879C15.6966 11.3738 15.8801 11.073 15.9471 10.7382L17.1194 4.63636H4.6635" stroke="white" stroke-linecap="round" stroke-linejoin="round"/>
</svg>
