<svg width="24" height="24" viewBox="0 0 24 24" fill="none" xmlns="http://www.w3.org/2000/svg">
<path d="M10.6248 20.2496C15.9405 20.2496 20.2496 15.9405 20.2496 10.6248C20.2496 5.30918 15.9405 1 10.6248 1C5.30918 1 1 5.30918 1 10.6248C1 15.9405 5.30918 20.2496 10.6248 20.2496Z" stroke="#0C1111" stroke-width="2" stroke-linecap="round" stroke-linejoin="round"/>
<path d="M17.4297 17.4316L22.9984 23.0004" stroke="#0C1111" stroke-width="2" stroke-linecap="round" stroke-linejoin="round"/>
</svg>
